<svg width="16" height="16" viewBox="0 0 16 16" fill="none" xmlns="http://www.w3.org/2000/svg">
<path d="M6.31523 10.1879C6.18857 10.1879 6.06189 10.1412 5.96189 10.0412C5.41523 9.49458 5.11523 8.76791 5.11523 8.00124C5.11523 6.40789 6.40856 5.11456 8.00191 5.11456C8.76858 5.11456 9.49525 5.41456 10.0419 5.96122C10.1352 6.05456 10.1886 6.18123 10.1886 6.31456C10.1886 6.4479 10.1352 6.57456 10.0419 6.66791L6.66858 10.0412C6.56856 10.1412 6.4419 10.1879 6.31523 10.1879ZM8.00191 6.11456C6.96191 6.11456 6.11523 6.96124 6.11523 8.00124C6.11523 8.33458 6.20189 8.65458 6.36189 8.93458L8.93525 6.36122C8.65525 6.20122 8.33525 6.11456 8.00191 6.11456Z" fill="#0E3449"/>
<path d="M3.73323 12.3404C3.6199 12.3404 3.4999 12.3004 3.40656 12.2204C2.69323 11.6137 2.05323 10.867 1.50656 10.0004C0.799896 8.90035 0.799896 7.10702 1.50656 6.00033C3.13323 3.45367 5.4999 1.987 7.99987 1.987C9.46654 1.987 10.9132 2.49367 12.1799 3.447C12.3999 3.61367 12.4465 3.927 12.2799 4.147C12.1132 4.367 11.7999 4.41367 11.5799 4.247C10.4865 3.42033 9.24654 2.987 7.99987 2.987C5.84656 2.987 3.78656 4.28033 2.34656 6.54033C1.84656 7.32035 1.84656 8.68035 2.34656 9.46035C2.84656 10.2404 3.4199 10.9137 4.05323 11.4604C4.2599 11.6404 4.28656 11.9537 4.10656 12.167C4.01323 12.2804 3.87323 12.3404 3.73323 12.3404Z" fill="#0E3449"/>
<path d="M7.99972 14.013C7.11305 14.013 6.24638 13.833 5.41305 13.4796C5.15972 13.373 5.03972 13.0796 5.14638 12.8263C5.25305 12.573 5.54638 12.453 5.79972 12.5596C6.50638 12.8596 7.24638 13.013 7.99305 13.013C10.1464 13.013 12.2064 11.7196 13.6464 9.45965C14.1464 8.67965 14.1464 7.31965 13.6464 6.53965C13.4397 6.21299 13.213 5.89965 12.973 5.60632C12.7997 5.39299 12.833 5.07965 13.0464 4.89965C13.2597 4.72632 13.573 4.75299 13.753 4.97299C14.013 5.29299 14.2664 5.63965 14.493 5.99965C15.1997 7.09965 15.1997 8.89298 14.493 9.99965C12.8664 12.5463 10.4997 14.013 7.99972 14.013Z" fill="#0E3449"/>
<path d="M8.46168 10.8456C8.22835 10.8456 8.01501 10.6789 7.96835 10.4389C7.91501 10.1656 8.09501 9.90561 8.36835 9.85895C9.10168 9.72561 9.71501 9.11228 9.84835 8.37895C9.90168 8.10562 10.1617 7.93228 10.435 7.97895C10.7083 8.03228 10.8883 8.29228 10.835 8.56562C10.6217 9.71895 9.70168 10.6323 8.55501 10.8456C8.52168 10.8389 8.49501 10.8456 8.46168 10.8456Z" fill="#0E3449"/>
<path d="M1.33427 15.1658C1.2076 15.1658 1.08094 15.1192 0.980938 15.0192C0.787604 14.8259 0.787604 14.5058 0.980938 14.3125L5.96094 9.33256C6.15427 9.13923 6.47427 9.13923 6.6676 9.33256C6.86093 9.52583 6.86093 9.84589 6.6676 10.0392L1.6876 15.0192C1.5876 15.1192 1.46094 15.1658 1.33427 15.1658Z" fill="#0E3449"/>
<path d="M9.68577 6.81426C9.5591 6.81426 9.4325 6.7676 9.3325 6.6676C9.13917 6.47427 9.13917 6.15427 9.3325 5.96094L14.3124 0.980938C14.5058 0.787604 14.8258 0.787604 15.0192 0.980938C15.2125 1.17427 15.2125 1.49427 15.0192 1.6876L10.0392 6.6676C9.93917 6.7676 9.81243 6.81426 9.68577 6.81426Z" fill="#0E3449"/>
</svg>
