<svg width="28" height="29" viewBox="0 0 28 29" fill="none" xmlns="http://www.w3.org/2000/svg">
<path d="M1.45455 8.71519C0.654545 8.71519 0 9.55519 0 10.5819V26.4485C0 27.4752 0.654545 28.3152 1.45455 28.3152C2.25455 28.3152 2.90909 27.4752 2.90909 26.4485V10.5819C2.90909 9.55519 2.25455 8.71519 1.45455 8.71519Z" fill="#88969D"/>
<path d="M26.5447 0.315247H6.18111C5.38111 0.315247 4.72656 1.18325 4.72656 2.24725V28.3152H25.0902C26.6975 28.3152 27.9993 26.5886 27.9993 24.4512V2.24725C27.9993 1.18325 27.3447 0.315247 26.5447 0.315247ZM17.8175 5.91525C17.8175 5.40191 18.1447 4.98191 18.5447 4.98191H22.9084C23.3084 4.98191 23.6357 5.40191 23.6357 5.91525V11.5152C23.6357 12.0286 23.3084 12.4486 22.9084 12.4486H18.5447C18.1447 12.4486 17.8175 12.0286 17.8175 11.5152V5.91525ZM9.45384 6.14858H13.8175C14.3193 6.14858 14.7266 6.67125 14.7266 7.31525C14.7266 7.95925 14.3193 8.48191 13.8175 8.48191H9.45384C8.95202 8.48191 8.54474 7.95925 8.54474 7.31525C8.54474 6.67125 8.95202 6.14858 9.45384 6.14858ZM9.45384 10.8152H13.8175C14.3193 10.8152 14.7266 11.3379 14.7266 11.9819C14.7266 12.6259 14.3193 13.1486 13.8175 13.1486H9.45384C8.95202 13.1486 8.54474 12.6259 8.54474 11.9819C8.54474 11.3379 8.95202 10.8152 9.45384 10.8152ZM23.272 22.4819H9.45384C8.95202 22.4819 8.54474 21.9592 8.54474 21.3152C8.54474 20.6712 8.95202 20.1486 9.45384 20.1486H23.272C23.7738 20.1486 24.1811 20.6712 24.1811 21.3152C24.1811 21.9592 23.7738 22.4819 23.272 22.4819ZM23.272 17.8152H9.45384C8.95202 17.8152 8.54474 17.2926 8.54474 16.6486C8.54474 16.0046 8.95202 15.4819 9.45384 15.4819H23.272C23.7738 15.4819 24.1811 16.0046 24.1811 16.6486C24.1811 17.2926 23.7738 17.8152 23.272 17.8152Z" fill="#88969D"/>
</svg>
