<svg width="16" height="16" viewBox="0 0 16 16" fill="none" xmlns="http://www.w3.org/2000/svg">
<path d="M10.1603 14.847H10.0736C7.11363 14.847 5.68696 13.6804 5.44029 11.067C5.41363 10.7937 5.61363 10.547 5.89363 10.5204C6.16029 10.4937 6.41363 10.7004 6.44029 10.9737C6.63363 13.067 7.62029 13.847 10.0803 13.847H10.167C12.8803 13.847 13.8403 12.887 13.8403 10.1737V5.82702C13.8403 3.11369 12.8803 2.15369 10.167 2.15369H10.0803C7.60696 2.15369 6.62029 2.94702 6.44029 5.08035C6.40696 5.35369 6.17363 5.56035 5.89363 5.53369C5.61363 5.51369 5.41363 5.26702 5.43363 4.99369C5.66029 2.34035 7.09363 1.15369 10.0736 1.15369H10.1603C13.4336 1.15369 14.8336 2.55369 14.8336 5.82702V10.1737C14.8336 13.447 13.4336 14.847 10.1603 14.847Z" fill="white"/>
<path d="M10.0007 8.5H2.41406C2.14073 8.5 1.91406 8.27333 1.91406 8C1.91406 7.72667 2.14073 7.5 2.41406 7.5H10.0007C10.2741 7.5 10.5007 7.72667 10.5007 8C10.5007 8.27333 10.2741 8.5 10.0007 8.5Z" fill="white"/>
<path d="M3.90098 10.7332C3.77431 10.7332 3.64764 10.6865 3.54764 10.5865L1.31431 8.35316C1.12098 8.15983 1.12098 7.83983 1.31431 7.6465L3.54764 5.41319C3.74098 5.21986 4.06098 5.21986 4.25431 5.41319C4.44764 5.60652 4.44764 5.92652 4.25431 6.11986L2.37431 7.99983L4.25431 9.87983C4.44764 10.0732 4.44764 10.3932 4.25431 10.5865C4.16098 10.6865 4.02764 10.7332 3.90098 10.7332Z" fill="white"/>
</svg>
