<svg width="21" height="21" viewBox="0 0 21 21" fill="none" xmlns="http://www.w3.org/2000/svg">
<path fill-rule="evenodd" clip-rule="evenodd" d="M10.125 20.25C15.7169 20.25 20.25 15.7169 20.25 10.125C20.25 4.53312 15.7169 0 10.125 0C4.53312 0 0 4.53312 0 10.125C0 11.9409 0.478043 13.6452 1.31515 15.1188L0 20.25L5.29021 19.0233C6.72689 19.8055 8.37404 20.25 10.125 20.25ZM10.125 18.6923C14.8566 18.6923 18.6923 14.8566 18.6923 10.125C18.6923 5.39341 14.8566 1.55769 10.125 1.55769C5.39341 1.55769 1.55769 5.39341 1.55769 10.125C1.55769 11.9519 2.12951 13.6452 3.10392 15.0358L2.33654 17.9135L5.26495 17.1814C6.64588 18.1343 8.32027 18.6923 10.125 18.6923Z" fill="#ffffff"/>
<path d="M7.59377 5.42411C7.35303 4.94058 6.98374 4.98339 6.61067 4.98339C5.94393 4.98339 4.9043 5.78202 4.9043 7.26835C4.9043 8.48648 5.44107 9.81991 7.2498 11.8146C8.99537 13.7396 11.2889 14.7354 13.193 14.7015C15.0971 14.6676 15.4889 13.0291 15.4889 12.4758C15.4889 12.2305 15.3367 12.1081 15.2318 12.0749C14.5829 11.7635 13.3862 11.1832 13.1139 11.0742C12.8416 10.9652 12.6994 11.1127 12.6111 11.1929C12.3641 11.4282 11.8746 12.1217 11.707 12.2777C11.5394 12.4337 11.2896 12.3547 11.1856 12.2958C10.803 12.1422 9.76551 11.6808 8.93854 10.8791C7.91581 9.88771 7.85579 9.54661 7.66311 9.24299C7.50896 9.00008 7.62207 8.85105 7.67852 8.78593C7.89887 8.53167 8.20313 8.13913 8.33958 7.94406C8.47603 7.74899 8.36771 7.45282 8.30271 7.26836C8.02318 6.47503 7.78635 5.81093 7.59377 5.42411Z" fill="#ffffff"/>
</svg>
